{
    "//": "https://data.gov.tw/dataset/6069",
    "weather": "https://opendata.cwb.gov.tw/api/v1/rest/datastore/F-C0032-001?Authorization=rdec-key-123-45678-011121314", 

    "//": "https://data.gov.tw/dataset/9161",
    "rain": "https://opendata.cwb.gov.tw/api/v1/rest/datastore/C-B0025-001?Authorization=rdec-key-123-45678-011121314",

    "//": "https://data.gov.tw/dataset/78432",
    "165id": "https://od.moi.gov.tw/api/v1/rest/datastore/A01010000C-001277-053"
}